/projects/555-hw3/src/main/java/edu/upenn/cis/stormlite/Config.java
/projects/555-hw3/src/main/java/edu/upenn/cis/stormlite/spout/SpoutOutputCollector.java
/projects/555-hw3/src/main/java/edu/upenn/cis/stormlite/storage/StorageImpl.java
/projects/555-hw3/src/main/java/edu/upenn/cis/stormlite/spout/IRichSpout.java
/projects/555-hw3/src/main/java/edu/upenn/cis/stormlite/DistributedCluster.java
/projects/555-hw3/src/main/java/edu/upenn/cis/stormlite/routers/Broadcast.java
/projects/555-hw3/src/main/java/edu/upenn/cis/stormlite/TopologyContext.java
/projects/555-hw3/src/main/java/edu/upenn/cis/stormlite/distributed/SenderBolt.java
/projects/555-hw3/src/main/java/edu/upenn/cis/stormlite/OutputFieldsDeclarer.java
/projects/555-hw3/src/main/java/edu/upenn/cis/stormlite/IOutputCollector.java
/projects/555-hw3/src/main/java/edu/upenn/cis/stormlite/LocalCluster.java
/projects/555-hw3/src/main/java/edu/upenn/cis/stormlite/bolt/MapBolt.java
/projects/555-hw3/src/main/java/edu/upenn/cis/stormlite/tuple/Values.java
/projects/555-hw3/src/main/java/edu/upenn/cis455/mapreduce/master/MasterServer.java
/projects/555-hw3/src/main/java/edu/upenn/cis455/mapreduce/master/WorkerStatus.java
/projects/555-hw3/src/main/java/edu/upenn/cis/stormlite/tuple/Tuple.java
/projects/555-hw3/src/main/java/edu/upenn/cis455/mapreduce/Context.java
/projects/555-hw3/src/main/java/edu/upenn/cis/stormlite/IStreamSource.java
/projects/555-hw3/src/main/java/edu/upenn/cis/stormlite/model/OccurrenceEvent.java
/projects/555-hw3/src/main/java/edu/upenn/cis/stormlite/StringIntPair.java
/projects/555-hw3/src/main/java/edu/upenn/cis/stormlite/TopologyBuilder.java
/projects/555-hw3/src/main/java/edu/upenn/cis455/mapreduce/RunJobRoute.java
/projects/555-hw3/src/main/java/edu/upenn/cis455/mapreduce/Job.java
/projects/555-hw3/src/main/java/edu/upenn/cis/stormlite/tasks/ITask.java
/projects/555-hw3/src/main/java/edu/upenn/cis/stormlite/tuple/Fields.java
/projects/555-hw3/src/main/java/edu/upenn/cis/stormlite/bolt/BoltDeclarer.java
/projects/555-hw3/src/main/java/edu/upenn/cis455/mapreduce/job/WordCount.java
/projects/555-hw3/src/main/java/edu/upenn/cis/stormlite/tasks/SpoutTask.java
/projects/555-hw3/src/main/java/edu/upenn/cis/stormlite/routers/StreamRouter.java
/projects/555-hw3/src/main/java/edu/upenn/cis/stormlite/model/DBViews.java
/projects/555-hw3/src/main/java/edu/upenn/cis/stormlite/tasks/BoltTask.java
/projects/555-hw3/src/main/java/edu/upenn/cis/stormlite/routers/First.java
/projects/555-hw3/src/main/java/edu/upenn/cis/stormlite/distributed/WorkerJob.java
/projects/555-hw3/src/main/java/edu/upenn/cis/stormlite/distributed/WorkerHelper.java
/projects/555-hw3/src/main/java/edu/upenn/cis/stormlite/distributed/ConsensusTracker.java
/projects/555-hw3/src/main/java/edu/upenn/cis/stormlite/routers/FieldBased.java
/projects/555-hw3/src/main/java/edu/upenn/cis/stormlite/storage/StorageInterface.java
/projects/555-hw3/src/main/java/edu/upenn/cis/stormlite/bolt/ReduceBolt.java
/projects/555-hw3/src/main/java/edu/upenn/cis/stormlite/routers/RoundRobin.java
/projects/555-hw3/src/main/java/edu/upenn/cis/stormlite/bolt/IRichBolt.java
/projects/555-hw3/src/main/java/edu/upenn/cis/stormlite/distributed/StringIntPairDeserializer.java
/projects/555-hw3/src/main/java/edu/upenn/cis455/mapreduce/worker/WorkerServer.java
/projects/555-hw3/src/main/java/edu/upenn/cis/stormlite/bolt/PrintBolt.java
/projects/555-hw3/src/main/java/edu/upenn/cis/stormlite/Topology.java
/projects/555-hw3/src/main/java/edu/upenn/cis/stormlite/distributed/StringIntPairKeyDeserializer.java
/projects/555-hw3/src/main/java/edu/upenn/cis/stormlite/storage/StorageFactory.java
/projects/555-hw3/src/main/java/edu/upenn/cis/stormlite/spout/FileSpout.java
/projects/555-hw3/src/main/java/edu/upenn/cis/stormlite/bolt/OutputCollector.java
/projects/555-hw3/src/main/java/edu/upenn/cis/stormlite/spout/FileSpoutImpl.java
