/projects/555-hw3/src/test/java/edu/upenn/cis/stormlite/mapreduce/WordFileSpout.java
/projects/555-hw3/src/test/java/edu/upenn/cis/stormlite/mapreduce/GroupWords.java
/projects/555-hw3/src/test/java/edu/upenn/cis/stormlite/PrintBolt.java
/projects/555-hw3/src/test/java/edu/upenn/cis/stormlite/WordSpout.java
/projects/555-hw3/src/test/java/edu/upenn/cis/stormlite/mapreduce/TestMapReduce.java
/projects/555-hw3/src/test/java/edu/upenn/cis/stormlite/TestWordCountStreaming.java
/projects/555-hw3/src/test/java/edu/upenn/cis/stormlite/WordCounter.java
